rum – Unequal Recreational Losses?
…
  # Add the park name so we know which row is which
  stats$parkname <- p
  
  return(stats)
})

# 3. Reorder columns to put parkname first
rum_results_2018 <- rum_results_2018 %>% 
  select(parkname, mean_cv_rum, std_dev_rum, ci_lo_2.5_rum, ci_hi_97.5_rum, n)

print(rum_results_2018)

# A tibble: 21 × 6
   parkname           mean_cv_rum std_dev_rum ci_lo_2.5_rum ci_hi_97.5_rum     n
   <chr>                    <dbl>       <dbl>         <dbl>          <dbl> <int>
 1 Ainapo Cabin            -2.96        3.81         -3.14          -2.78   1763
 2 Hipalau                 -2.59        4.25         -2.79          -2.39   1763
 3 Kaluahaulu              -1.42        2.31         -1.53          -1.31   1763
 4 Kamananui Trail         -1.41        1.17         -1.46          -1.35   1763
 5 Kaunala Trail           -0.843       0.720        -0.877         -0.809  1763
 6 Kawaikoi                -6.95       11.6          -7.49          -6.41   1763
 7 Keanakolu Ranger …     -15.4        18.1         -16.2          -14.5    1763
 8 Kuaokala Trail         -18.8        15.1         -19.5          -18.1    1763
 9 Kulanaahane Trail       -0.467       0.386        -0.485         -0.449  1763
10 Kuliouou Trail          -2.36        2.12         -2.46          -2.26   1763
# ℹ 11 more rows
…
combined_welfare=read_csv("rum_combined_totalWF.csv")

Rows: 129 Columns: 15
── Column specification ────────────────────────────────────────────────────────
Delimiter: ","
chr  (1): parkname
dbl (14): rum_mean_per_trip, std_dev_rum, ci_lo_2.5_rum, ci_hi_97.5_rum, rum...

ℹ Use `spec()` to retrieve the full column specification for this data.
ℹ Specify the column types or set `show_col_types = FALSE` to quiet this message.

print(combined_welfare)

# A tibble: 129 × 15
   parkname           rum_mean_per_trip std_dev_rum ci_lo_2.5_rum ci_hi_97.5_rum
   <chr>                          <dbl>       <dbl>         <dbl>          <dbl>
 1 Ainapo Cabin                  -2.96        3.81         -3.14          -2.78 
 2 Hipalau                       -2.59        4.25         -2.79          -2.39 
 3 Kaluahaulu                    -1.42        2.31         -1.53          -1.31 
 4 Kamananui Trail               -1.41        1.17         -1.46          -1.35 
 5 Kaunala Trail                 -0.843       0.720        -0.877         -0.809
 6 Kawaikoi                      -6.95       11.6          -7.49          -6.41 
 7 Keanakolu Ranger …           -15.4        18.1         -16.2          -14.5  
 8 Kuaokala Trail               -18.8        15.1         -19.5          -18.1  
 9 Kulanaahane Trail             -0.467       0.386        -0.485         -0.449
10 Kuliouou Trail                -2.36        2.12         -2.46          -2.26 
# ℹ 119 more rows
# ℹ 10 more variables: rum_total_annual_loss <dbl>, parkname_numeric <dbl>,
#   mdcev_mean_per_person <dbl>, std.dev <dbl>, `ci_lo2.5%` <dbl>,
#   `ci_hi97.5%` <dbl>, rum_annual_total <dbl>, mdcev_annual_total <dbl>,
#   difference <dbl>, year <dbl>
…
  # Add the park name so we know which row is which
  stats$parkname <- p
  
  return(stats)
})

# 3. Reorder columns to put parkname first
rum_results_2018_52 <- rum_results_2018_52 %>% 
  select(parkname, mean_cv_rum, std_dev_rum, ci_lo_2.5_rum, ci_hi_97.5_rum, n)

print(rum_results_2018_52)

# A tibble: 21 × 6
   parkname           mean_cv_rum std_dev_rum ci_lo_2.5_rum ci_hi_97.5_rum     n
   <chr>                    <dbl>       <dbl>         <dbl>          <dbl> <int>
 1 Ainapo Cabin           -0.0711     0.0936        -0.0718        -0.0704 71760
 2 Hipalau                -0.0619     0.0856        -0.0625        -0.0613 71760
 3 Kaluahaulu             -0.0344     0.0475        -0.0347        -0.0340 71760
 4 Kamananui Trail        -0.0344     0.0237        -0.0345        -0.0342 71760
 5 Kaunala Trail          -0.0206     0.0146        -0.0207        -0.0205 71760
 6 Kawaikoi               -0.158      0.217         -0.160         -0.157  71760
 7 Keanakolu Ranger …     -0.340      0.436         -0.343         -0.337  71760
 8 Kuaokala Trail         -0.422      0.296         -0.425         -0.420  71760
 9 Kulanaahane Trail      -0.0115     0.00790       -0.0115        -0.0114 71760
10 Kuliouou Trail         -0.0573     0.0405        -0.0576        -0.0570 71760
# ℹ 11 more rows
…
Rows: 22 Columns: 5
── Column specification ────────────────────────────────────────────────────────
Delimiter: ","
chr (1): policy
dbl (4): mean, std.dev, ci_lo2.5%, ci_hi97.5%

ℹ Use `spec()` to retrieve the full column specification for this data.
ℹ Specify the column types or set `show_col_types = FALSE` to quiet this message.

# View the final combined dataset
print(final_comparison_52)

# A tibble: 129 × 15
    year parkname       rum_mean_per_trip mdcev_mean_per_person rum_annual_total
   <int> <chr>                      <dbl>                 <dbl>            <dbl>
 1  2018 Ainapo Cabin             -0.0711               -0.995            -125. 
 2  2018 Hipalau                  -0.0619               -1.85             -109. 
 3  2018 Kaluahaulu               -0.0344               -1.31              -60.6
 4  2018 Kamananui Tra…           -0.0344               -0.0962            -60.6
 5  2018 Kaunala Trail            -0.0206               -0.138             -36.4
 6  2018 Kawaikoi                 -0.158                -2.84             -279. 
 7  2018 Keanakolu Ran…           -0.340                -4.47             -599. 
 8  2018 Kuaokala Trail           -0.422                -4.09             -745. 
 9  2018 Kulanaahane T…           -0.0115               -0.0351            -20.2
10  2018 Kuliouou Trail           -0.0573               -0.280            -101. 
# ℹ 119 more rows
# ℹ 10 more variables: mdcev_annual_total <dbl>, difference <dbl>,
#   rum_total_annual_loss <dbl>, std_dev_rum <dbl>, ci_lo_2.5_rum <dbl>,
#   ci_hi_97.5_rum <dbl>, std.dev <dbl>, `ci_lo2.5%` <dbl>, `ci_hi97.5%` <dbl>,
#   parkname_numeric <int>
…
